Analysis with R
…
ℹ Use `spec()` to retrieve the full column specification for this data.
ℹ Specify the column types or set `show_col_types = FALSE` to quiet this message.

Exploratory Analysis

Step 1.

Observe total number of survey taken

data |>
  group_by(ID) |>
  count()

# A tibble: 1,119 × 2
# Groups:   ID [1,119]
      ID     n
   <dbl> <int>
 1 51655     1
 2 51667     1
 3 51683     1
 4 51685     1
 5 51702     1
 6 51704     1
 7 51707     1
 8 51710     1
 9 51715     1
10 51728     1
# ℹ 1,109 more rows
…
